asap_sample/tests/original_ip/waveform.vcd
$date
	Sun Jun  2 01:35:15 2024
$end
$version
	Icarus Verilog
$end
$timescale
	1s
$end
$scope module top_tb $end
$var wire 1 ! rsp_valid $end
$var wire 32 " data_out [31:0] $end
$var reg 24 # access_reg [23:0] $end
$var reg 1 $ clk $end
$var reg 32 % data_in [31:0] $end
$var reg 1 & rd_ready $end
$var reg 1 ' req_valid $end
$var reg 1 ( rst $end
$var integer 32 ) i [31:0] $end
$scope module top_inst $end
$var wire 24 * access_reg [23:0] $end
$var wire 1 $ clk $end
$var wire 32 + data_in [31:0] $end
$var wire 1 & rd_ready $end
$var wire 1 ' req_valid $end
$var wire 1 ( rst $end
$var wire 1 ! rsp_valid $end
$var wire 3 , req_type [2:0] $end
$var wire 128 - priv_data [127:0] $end
$var wire 64 . key_hash [63:0] $end
$var wire 1 / key_en $end
$var wire 32 0 data_out [31:0] $end
$var wire 1 1 access_en $end
$scope module adaptor $end
$var wire 1 $ clk $end
$var wire 32 2 data_in [31:0] $end
$var wire 1 & rd_ready $end
$var wire 1 ' req_valid $end
$var wire 1 ( rst $end
$var wire 1 3 rsp_pending_next $end
$var wire 128 4 priv_data [127:0] $end
$var reg 32 5 data_out [31:0] $end
$var reg 1 / key_en $end
$var reg 1 6 key_en_next $end
$var reg 64 7 key_hash [63:0] $end
$var reg 64 8 key_hash_next [63:0] $end
$var reg 1 9 req_received $end
$var reg 2 : req_state [1:0] $end
$var reg 2 ; req_state_next [1:0] $end
$var reg 3 < req_type [2:0] $end
$var reg 3 = req_type_next [2:0] $end
$var reg 1 > rsp_pending $end
$var reg 1 ? rsp_sent $end
$var reg 2 @ rsp_state [1:0] $end
$var reg 2 A rsp_state_next [1:0] $end
$var reg 1 ! rsp_valid $end
$upscope $end
$scope module agent $end
$var wire 128 B priv_data [127:0] $end
$var wire 1 1 access_en $end
$upscope $end
$scope module controller $end
$var wire 24 C access_reg [23:0] $end
$var wire 1 $ clk $end
$var wire 1 / key_en $end
$var wire 64 D key_hash [63:0] $end
$var wire 3 E req_type [2:0] $end
$var wire 1 ( rst $end
$var wire 64 F xored_key_hash [63:0] $end
$var wire 1 1 access_en $end
$var reg 3 G key_index [2:0] $end
$var reg 3 H key_index_next [2:0] $end
$upscope $end
$upscope $end
$scope task send_malicious_software_req $end
$upscope $end
$scope task send_privileged_software_req $end
$upscope $end
$upscope $end
$enddefinitions $end
#0
$dumpvars
b0 H
bx G
b0xxxxxxxxxxxxxxxxxxxxxxxxxxxxxxxx F
bx E
bx D
b110000000000000000000 C
bx0x0x0xxxx00xx0xx0x0x0xxxx00xx0xxx0xx0x0x0xxxx00x0x0x0xxxx00xx0xx0x0x0xxxx00xx0xxx0xx0x0x0xxxx00xx0xx0x0x0xxxx00xx0xx0x0x0xxxx00 B
b0 A
bx @
0?
x>
b0 =
bx <
b0 ;
bx :
09
b0 8
bx 7
06
b0 5
bx0x0x0xxxx00xx0xx0x0x0xxxx00xx0xxx0xx0x0x0xxxx00x0x0x0xxxx00xx0xx0x0x0xxxx00xx0xxx0xx0x0x0xxxx00xx0xx0x0x0xxxx00xx0xx0x0x0xxxx00 4
03
b0 2
x1
b0 0
x/
bx .
bx0x0x0xxxx00xx0xx0x0x0xxxx00xx0xxx0xx0x0x0xxxx00x0x0x0xxxx00xx0xx0x0x0xxxx00xx0xxx0xx0x0x0xxxx00xx0xx0x0x0xxxx00xx0xx0x0x0xxxx00 -
bx ,
b0 +
b110000000000000000000 *
b11 )
1(
0'
0&
b0 %
0$
b110000000000000000000 #
b0 "
0!
$end
#5
b11011110101011011011111011101111 F
b0 -
b0 4
b0 B
0/
b0 .
b0 7
b0 D
01
b0 ,
b0 <
b0 E
0>
b0 @
b0 :
b0 G
1$
#10
0$
#15
1$
#20
0$
0(
#25
1$
#30
0$
#35
1$
#40
b1 ;
0$
1'
#45
b10 ;
b1 :
1$
#50
b10 =
0$
b10 %
b10 +
b10 2
#55
b1000000000000000000000000000000000 8
b11 ;
b10 ,
b10 <
b10 E
b10 :
1$
#60
b1101111010101101101111101110111100000000000000000000000000000000 8
0$
b11011110101011011011111011101111 %
b11011110101011011011111011101111 +
b11011110101011011011111011101111 2
#65
b0 F
13
19
16
b1101111010101101101111101110111111011110101011011011111011101111 8
b0 ;
b1101111010101101101111101110111100000000000000000000000000000000 .
b1101111010101101101111101110111100000000000000000000000000000000 7
b1101111010101101101111101110111100000000000000000000000000000000 D
b11 :
1$
#70
b1101111010101101101111101110111110101011110011011010101111001101 8
0$
b10101011110011011010101111001101 %
b10101011110011011010101111001101 +
b10101011110011011010101111001101 2
#75
b11 H
b10101011110011011010101111001101 F
09
06
b1 ;
1/
b1101111010101101101111101110111110101011110011011010101111001101 .
b1101111010101101101111101110111110101011110011011010101111001101 7
b1101111010101101101111101110111110101011110011011010101111001101 D
1>
b0 :
1$
#80
b0 ;
0$
0'
#85
b10101011110011011010101111001101110110101011110010101011110011011010101111001101110110101011110011011010101111001101101010111100 -
b10101011110011011010101111001101110110101011110010101011110011011010101111001101110110101011110011011010101111001101101010111100 4
b10101011110011011010101111001101110110101011110010101011110011011010101111001101110110101011110011011010101111001101101010111100 B
0/
11
b11 G
1$
#90
b11011010101111001101101010111100 "
b11011010101111001101101010111100 0
b11011010101111001101101010111100 5
1!
b1 A
0$
1&
#95
b10101011110011011101101010111100 "
b10101011110011011101101010111100 0
b10101011110011011101101010111100 5
b10 A
b1 @
1$
#100
0$
#105
b11011010101111001010101111001101 "
b11011010101111001010101111001101 0
b11011010101111001010101111001101 5
b11 A
b10 @
1$
#110
0$
#115
03
1?
b10101011110011011010101111001101 "
b10101011110011011010101111001101 0
b10101011110011011010101111001101 5
b0 A
b11 @
1$
#120
0$
#125
0?
b0 "
b0 0
b0 5
0!
0>
b0 @
1$
#130
0$
#135
1$
#140
b1 ;
0$
b0 %
b0 +
b0 2
1'
#145
b0 =
b10 ;
b1 :
1$
#150
b10 =
0$
b10 %
b10 +
b10 2
#155
b1010101011110011011010101111001101 8
b11 ;
b10 :
1$
#160
b1001000010101001101010010010010101011110011011010101111001101 8
0$
b10010000101010011010100100100 %
b10010000101010011010100100100 +
b10010000101010011010100100100 2
#165
b1100111011101010010000000000110 F
13
19
16
b1001000010101001101010010010000010010000101010011010100100100 8
b0 ;
b1001000010101001101010010010010101011110011011010101111001101 .
b1001000010101001101010010010010101011110011011010101111001101 7
b1001000010101001101010010010010101011110011011010101111001101 D
b11 :
1$
#170
b1001000010101001101010010010011000000100010010101111010000001 8
0$
b11000000100010010101111010000001 %
b11000000100010010101111010000001 +
b11000000100010010101111010000001 2
#175
b1100001100011101010101001010 F
b0 H
b11011010101111001101101010111100 "
b11011010101111001101101010111100 0
b11011010101111001101101010111100 5
1!
b1 A
09
06
b1 ;
1/
b1001000010101001101010010010011000000100010010101111010000001 .
b1001000010101001101010010010011000000100010010101111010000001 7
b1001000010101001101010010010011000000100010010101111010000001 D
1>
b0 :
1$
#180
b0 ;
0$
0'
#185
b0 "
b0 0
b0 5
b10 A
b0 -
b0 4
b0 B
0/
b1 @
01
b0 G
1$
#190
0$
#195
b11 A
b10 @
1$
#200
0$
#205
03
1?
b0 A
b11 @
1$
#210
0$
#215
0?
0!
0>
b0 @
1$
